Exploratory data anaylsis for songs
…
model_input_df

# A tibble: 7,823 × 23
   band_id song_id date       loudness length energy copies_sold
     <int>   <int> <date>        <int>  <dbl>  <int>       <dbl>
 1     808    6534 2018-01-01       79   3.35    137       0.391
 2    1143    9234 2018-01-01       78   4.91     86       0.543
 3    1263   10168 2018-01-01       99   5.89    159       0.723
 4     744    6017 2018-01-01       92   5.64    143       0.974
 5     606    4805 2018-01-01       72   5.84    144       1.09 
 6    1022    8189 2018-01-01       71   3.65     85       1.34 
 7     807    6514 2018-01-01       79   4.76    156       1.80 
 8     609    4844 2018-01-02       88   6.66    115       0.147
 9     679    5437 2018-01-02       85   2.33    145       0.438
10      98     772 2018-01-03       68   4.79    138       0.156
# ℹ 7,813 more rows
# ℹ 16 more variables: is_missing_energy <lgl>, days_since_release <int>,
#   trend <int>, Psychedelictrance <dbl>, Gothicsynth <dbl>, Indiedisco <dbl>,
#   Folktronica <dbl>, `Trip-pop` <dbl>, Futuristicountry <dbl>,
#   Electroswing <dbl>, Chillgaze <dbl>, Neoclassicalwave <dbl>,
#   Junglejazz <dbl>, interaction_loudness_length <dbl>,
#   interaction_energy_length <dbl>, log_copies_sold <dbl>
